{
  "npmScope": "slush",
  "implicitDependencies": {
    "angular.json": "*",
    "package.json": "*",
    "tsconfig.json": "*",
    "tslint.json": "*",
    "nx.json": "*",
    "cloudbuild.yaml": "*"
  },
  "projects": {
    "backend-accounts": {
      "tags": []
    },
    "backend-applications": {
      "tags": []
    },
    "frontend-meeting-area-tool": {
      "tags": []
    },
    "frontend-meeting-area-tool-e2e": {
      "tags": []
    }
  }
}
